Analyzing The Office data
…
office_transcripts %>%
  count(character, sort = TRUE)

## # A tibble: 769 x 2
##    character     n
##    <chr>     <int>
##  1 Michael   10921
##  2 Dwight     6847
##  3 Jim        6304
##  4 Pam        5031
##  5 Andy       3754
##  6 Angela     1570
##  7 Kevin      1564
##  8 Erin       1440
##  9 Oscar      1368
## 10 Ryan       1198
## #  with 759 more rows
…
What affects the popularity of an episode?

Season/time

Director

Writer

Lines per character

office_transcripts %>%
  count(episode_name, character)

## # A tibble: 4,003 x 3
##    episode_name                     character            n
##    <chr>                            <chr>            <int>
##  1 A Benihana Christmas (Parts 1&2) Andy                28
##  2 A Benihana Christmas (Parts 1&2) Andy and Michael     1
##  3 A Benihana Christmas (Parts 1&2) Angela              37
##  4 A Benihana Christmas (Parts 1&2) Both                 2
##  5 A Benihana Christmas (Parts 1&2) Carol               18
##  6 A Benihana Christmas (Parts 1&2) Chef                 2
##  7 A Benihana Christmas (Parts 1&2) Cindy                2
##  8 A Benihana Christmas (Parts 1&2) Creed                3
##  9 A Benihana Christmas (Parts 1&2) Darryl               3
## 10 A Benihana Christmas (Parts 1&2) Dwight              61
## #  with 3,993 more rows
